…
   tibble( 
          # sum missing
          n_miss = sum(is.na(i)), 
          
          # percent missing
          perc_miss = round(n_miss/length(i) * 100, 1)
          )
   }) %>% 
   
   # bind list
   bind_rows(.id = "variable")
```

```
## # A tibble: 27 x 3
##    variable  n_miss perc_miss
##    <chr>      <int>     <dbl>
##  1 time           0       0  
##  2 latitude       0       0  
##  3 longitude      0       0  
##  4 depth          0       0  
##  5 mag            1       0  
##  6 magType        1       0  
##  7 nst          358      17  
##  8 gap          234      11.1
##  9 dmin         634      30.2
## 10 rms            0       0  
## # … with 17 more rows
```
…
