…
```r
# get info
la_grid
```

```
## Simple feature collection with 18711 features and 8 fields
## Geometry type: POINT
## Dimension:     XY
## Bounding box:  xmin: -118.4985 ymin: 33.6969 xmax: -117.5485 ymax: 34.1819
## CRS:           +proj=longlat +ellps=WGS84 +datum=WGS84 +no_defs
## # A tibble: 18,711 x 9
##    native_id      D2A1 A1_50 A23_400 Pop_5000     D2C D2Comm Int_3000
##  * <chr>         <dbl> <dbl>   <dbl>    <dbl>   <dbl>  <dbl>    <dbl>
##  1 grid_la_4444   3.19     0  0.118     1.95  0.0388  0.132  0.247   
##  2 grid_la_8551   3.73     0  0         0.336 0.15    0.348  0.00344 
##  3 grid_la_9643   3.67     0  0.0976    1.99  0.15    0.0581 0.270   
##  4 grid_la_2319   3.85     0  0         0.626 0.0195  0.0236 0.154   
##  5 grid_la_10320  3.65     0  0         0.908 0.0114  0.184  0.0495  
##  6 grid_la_7622   2.88     0  0         0.399 0.15    0.241  0.0145  
##  7 grid_la_640    3.72     0  0         0     0.0281  0.547  0.000152
##  8 grid_la_423    3.67     0  0.0487    0.725 0.00323 0.03   0.0953  
##  9 grid_la_7870   3.30     0  0.171     3.01  0.0972  0      0.251   
## 10 grid_la_1972   2.88     0  0         1.38  0.00216 0.152  0.0866  
## # … with 18,701 more rows, and 1 more variable: geometry <POINT [°]>
```
…
```
## although coordinates are longitude/latitude, st_intersects assumes that they are planar
```

```
## Simple feature collection with 17144 features and 10 fields
## Geometry type: POINT
## Dimension:     XY
## Bounding box:  xmin: -118.4985 ymin: 33.6969 xmax: -117.5485 ymax: 34.1819
## CRS:           +proj=longlat +ellps=WGS84 +datum=WGS84 +no_defs
## # A tibble: 17,144 x 11
##    native_id      D2A1 A1_50 A23_400 Pop_5000     D2C D2Comm Int_3000
##  * <chr>         <dbl> <dbl>   <dbl>    <dbl>   <dbl>  <dbl>    <dbl>
##  1 grid_la_4444   3.19     0  0.118     1.95  0.0388  0.132   0.247  
##  2 grid_la_8551   3.73     0  0         0.336 0.15    0.348   0.00344
##  3 grid_la_9643   3.67     0  0.0976    1.99  0.15    0.0581  0.270  
##  4 grid_la_2319   3.85     0  0         0.626 0.0195  0.0236  0.154  
##  5 grid_la_7622   2.88     0  0         0.399 0.15    0.241   0.0145 
##  6 grid_la_7870   3.30     0  0.171     3.01  0.0972  0       0.251  
##  7 grid_la_1972   2.88     0  0         1.38  0.00216 0.152   0.0866 
##  8 grid_la_12299  3.25     0  0.219     2.22  0.15    0       0.263  
##  9 grid_la_17261  2.71     0  0.277     1.99  0.15    0       0.264  
## 10 grid_la_6556   2.39     0  0         2.63  0.101   0.0796  0.260  
## # … with 17,134 more rows, and 3 more variables: geometry <POINT [°]>,
## #   var1.pred <dbl>, var1.var <dbl>
```
…
# also transform the predicted NOx to the native scale
new_grid <- new_grid %>% mutate(NOx = exp(var1.pred))

# Take a look. The result still has the same number of features, and no NAs
new_grid
```

```
## Simple feature collection with 17144 features and 11 fields
## Geometry type: POINT
## Dimension:     XY
## Bounding box:  xmin: -118.4985 ymin: 33.6969 xmax: -117.5485 ymax: 34.1819
## CRS:           +proj=longlat +ellps=WGS84 +datum=WGS84 +no_defs
## # A tibble: 17,144 x 12
##    native_id      D2A1 A1_50 A23_400 Pop_5000     D2C D2Comm Int_3000
##  * <chr>         <dbl> <dbl>   <dbl>    <dbl>   <dbl>  <dbl>    <dbl>
##  1 grid_la_4444   3.19     0  0.118     1.95  0.0388  0.132   0.247  
##  2 grid_la_8551   3.73     0  0         0.336 0.15    0.348   0.00344
##  3 grid_la_9643   3.67     0  0.0976    1.99  0.15    0.0581  0.270  
##  4 grid_la_2319   3.85     0  0         0.626 0.0195  0.0236  0.154  
##  5 grid_la_7622   2.88     0  0         0.399 0.15    0.241   0.0145 
##  6 grid_la_7870   3.30     0  0.171     3.01  0.0972  0       0.251  
##  7 grid_la_1972   2.88     0  0         1.38  0.00216 0.152   0.0866 
##  8 grid_la_12299  3.25     0  0.219     2.22  0.15    0       0.263  
##  9 grid_la_17261  2.71     0  0.277     1.99  0.15    0       0.264  
## 10 grid_la_6556   2.39     0  0         2.63  0.101   0.0796  0.260  
## # … with 17,134 more rows, and 4 more variables: geometry <POINT [°]>,
## #   var1.pred <dbl>, var1.var <dbl>, NOx <dbl>
```
…
