…
    # put formulas all the way to the left 
    relocate(formula) %>% 
    
    # round 
    mutate_if(is.double, round, 3)
  
}


# use function for coefficient summary 
extract_nested(nested = df_nested, variable = coeff_summ, frmls = lm_formulas)
```

```
## # A tibble: 39 x 7
## # Groups:   Embarked [3]
##    formula                Embarked term     estimate std.error statistic p.value
##    <chr>                  <chr>    <chr>       <dbl>     <dbl>     <dbl>   <dbl>
##  1 Survived ~ Age         S        (Interc…    0.434     0.047     9.20    0    
##  2 Survived ~ Age         S        Age        -0.002     0.001    -1.68    0.094
##  3 Survived ~ Age + Sex   S        (Interc…    0.741     0.046    16.2     0    
##  4 Survived ~ Age + Sex   S        Age        -0.001     0.001    -0.753   0.452
##  5 Survived ~ Age + Sex   S        Sexmale    -0.528     0.037   -14.2     0    
##  6 Survived ~ Age + Sex … S        (Interc…    1.27      0.075    17.1     0    
##  7 Survived ~ Age + Sex … S        Age        -0.005     0.001    -3.80    0    
##  8 Survived ~ Age + Sex … S        Sexmale    -0.472     0.035   -13.3     0    
##  9 Survived ~ Age + Sex … S        Pclass     -0.198     0.023    -8.74    0    
## 10 Survived ~ Age + Sex … S        (Interc…    0.676     0.048    14.1     0    
## # … with 29 more rows
```
…
